ISWB 15 Hypervolume Workshop - Example 1: Stability of seagrass ecosystems in Florida Bay
…
# save output
write_csv(df_cd, 'data/SAV_centDist.csv')

## Rows: 465 Columns: 11
## ── Column specification ────────────────────────────────────────────────────────
## Delimiter: ","
## chr  (1): BASIN
## dbl (10): y1, y2, ychange, dist_cent, TT, HW, SF, sg_rich, TMA, TDR
## 
## ℹ Use `spec()` to retrieve the full column specification for this data.
## ℹ Specify the column types or set `show_col_types = FALSE` to quiet this message.

df_cd
## # A tibble: 465 × 11
##    BASIN    y1    y2 ychange dist_cent     TT      HW        SF  sg_rich     TMA
##    <chr> <dbl> <dbl>   <dbl>     <dbl>  <dbl>   <dbl>     <dbl>    <dbl>   <dbl>
##  1 EAG    2007  2008       1     0.502 -0.109 -0.0440  -1.15e-5  0.0104   0.0467
##  2 EAG    2007  2009       2     0.493 -0.262 -0.0265  -5.03e-5 -0.0846   0.0631
##  3 EAG    2007  2010       3     0.576 -0.174 -0.0810  -3.60e-5 -0.143    0.303 
##  4 EAG    2007  2011       4     0.616 -0.210 -0.0625  -2.13e-5 -0.0286   0.572 
##  5 EAG    2007  2012       5     0.373 -0.150 -0.0462  -3.45e-5  0.0162   0.329 
##  6 EAG    2007  2013       6     0.227 -0.140 -0.0291   9.11e-6  0.0763   0.0580
##  7 EAG    2007  2014       7     0.454 -0.409 -0.0134  -2.21e-5 -0.0539   0.0827
##  8 EAG    2007  2015       8     0.564 -0.445 -0.0243   1.43e-5  0.00913  0.315 
##  9 EAG    2007  2016       9     0.490 -0.320 -0.0981  -1.55e-5 -0.170    0.169 
## 10 EAG    2007  2017      10     0.339 -0.210 -0.0607  -2.36e-5 -0.0816  -0.0509
## # ℹ 455 more rows
## # ℹ 1 more variable: TDR <dbl>
…
