ISWB 15 Hypervolume Workshop - Example 2: Trait diversity of coral communities
…
# load benthic community percent cover data across regions
# pc = percent cover 0-100
# pc_sd = standard deviation in percent cover
df_ben = read_csv('data/coral_PC.csv')
## Rows: 52 Columns: 4
## ── Column specification ────────────────────────────────────────────────────────
## Delimiter: ","
## chr (2): species, region
## dbl (2): pc, pc_sd
## 
## ℹ Use `spec()` to retrieve the full column specification for this data.
## ℹ Specify the column types or set `show_col_types = FALSE` to quiet this message.
df_ben
## # A tibble: 52 × 4
##    species              region              pc  pc_sd
##    <chr>                <chr>            <dbl>  <dbl>
##  1 Acropora cervicornis North/Northeast 0.0617  0.237
##  2 Acropora cervicornis South           0.0536  0.268
##  3 Acropora cervicornis Southwest       0.16    0.505
##  4 Acropora cervicornis West            0.0647  0.541
##  5 Acropora palmata     Southwest       3.94   10.1  
##  6 Acropora palmata     West            5.04   13.9  
##  7 Colpophyllia natans  Mona/Desecheo   0.653   1.55 
##  8 Colpophyllia natans  South           0.467   1.39 
##  9 Colpophyllia natans  Southwest       0.317   1.05 
## 10 Colpophyllia natans  Vieques/Culebra 0.0757  0.296
## # ℹ 42 more rows
…
set.seed(14)
df = df_ben |> 
  # join trait data to benthic data
  left_join(df_tr, by = 'species') |> 
  # duplicate the data to create the number of reps needed
  slice(rep(1:n(), each=reps))|> 
  # randomly generate percent cover
  mutate(i = rep(1:reps, times=nrow(df_ben)),
         percentcover = truncnorm::rtruncnorm(1, a = 0.001, b = 100,
                                              mean = pc, sd = pc_sd)) |> 
  select(region, `corallite diameter`:`percentcover`)

df 
## # A tibble: 5,200 × 8
##    region          `corallite diameter` `growth rate` `skeletal density`
##    <chr>                          <dbl>         <dbl>              <dbl>
##  1 North/Northeast                  1.2          111.               1.51
##  2 North/Northeast                  1.2          111.               1.51
##  3 North/Northeast                  1.2          111.               1.51
##  4 North/Northeast                  1.2          111.               1.51
##  5 North/Northeast                  1.2          111.               1.51
##  6 North/Northeast                  1.2          111.               1.51
##  7 North/Northeast                  1.2          111.               1.51
##  8 North/Northeast                  1.2          111.               1.51
##  9 North/Northeast                  1.2          111.               1.51
## 10 North/Northeast                  1.2          111.               1.51
## # ℹ 5,190 more rows
## # ℹ 4 more variables: `symbiodinium density` <dbl>,
## #   `colony maximum diameter` <dbl>, i <int>, percentcover <dbl>
…
