ISWB 15 Hypervolume Workshop - Example 3: trophic niche of seagrass consumers
…
# load all data
d = read_csv('data/CESImixResults.csv')
## Rows: 56 Columns: 7
## ── Column specification ────────────────────────────────────────────────────────
## Delimiter: ","
## chr (3): species, season, source
## dbl (4): mean, sd, lowend, highend
## 
## ℹ Use `spec()` to retrieve the full column specification for this data.
## ℹ Specify the column types or set `show_col_types = FALSE` to quiet this message.
d
## # A tibble: 56 × 7
##    species             season source     mean    sd lowend highend
##    <chr>               <chr>  <chr>     <dbl> <dbl>  <dbl>   <dbl>
##  1 Bay anchovy         Wet    Algae     0.02  0.016  0       0.061
##  2 Mojarra             Wet    Algae     0.004 0.004  0       0.013
##  3 Pigfish             Wet    Algae     0.008 0.008  0       0.028
##  4 Pinfish             Wet    Algae     0.028 0.018  0       0.062
##  5 Pink shrimp         Wet    Algae     0.009 0.008  0       0.031
##  6 Rainwater killifish Wet    Algae     0.016 0.017  0       0.063
##  7 Silver perch        Wet    Algae     0.02  0.024  0       0.091
##  8 Bay anchovy         Wet    Epiphytes 0.3   0.067  0.153   0.418
##  9 Mojarra             Wet    Epiphytes 0.04  0.02   0.009   0.084
## 10 Pigfish             Wet    Epiphytes 0.076 0.034  0.019   0.149
## # ℹ 46 more rows
…
df
## # A tibble: 21,000 × 7
## # Groups:   i [50]
##        i species     season Algae[,1] Epiphytes[,1] Mangrove[,1] Seagrass[,1]
##    <int> <chr>       <chr>      <dbl>         <dbl>        <dbl>        <dbl>
##  1     1 Bay anchovy Wet    -0.748           0.260          1.99      -0.330 
##  2     1 Bay anchovy Wet     0.282           0.332          2.15      -0.466 
##  3     1 Bay anchovy Wet     0.456          -0.0134         2.10       0.0613
##  4     1 Bay anchovy Wet     0.186          -0.648          2.39      -0.260 
##  5     1 Bay anchovy Wet    -0.478          -0.265          1.82      -0.232 
##  6     1 Bay anchovy Wet     0.0711         -0.369          1.76       0.0775
##  7     1 Bay anchovy Wet    -0.490          -0.675          1.66      -0.481 
##  8     1 Bay anchovy Wet     0.000560       -0.465          2.24      -0.322 
##  9     1 Bay anchovy Wet    -0.625          -0.158          2.34      -0.619 
## 10     1 Bay anchovy Wet    -0.0106         -0.425          2.07      -0.670 
## # ℹ 20,990 more rows
…
